<?xml version="1.0" encoding="UTF-8" standalone="no"?>
<!DOCTYPE svg PUBLIC "-//W3C//DTD SVG 1.1//EN"
 "http://www.w3.org/Graphics/SVG/1.1/DTD/svg11.dtd">
<!-- Generated by graphviz version 2.47.0 (20210316.0004)
 -->
<!-- Title: dependencies Pages: 1 -->
<svg width="1974pt" height="284pt"
 viewBox="0.00 0.00 1974.00 284.00" xmlns="http://www.w3.org/2000/svg" xmlns:xlink="http://www.w3.org/1999/xlink">
<g id="graph0" class="graph" transform="scale(1 1) rotate(0) translate(4 280)">
<title>dependencies</title>
<polygon fill="white" stroke="transparent" points="-4,4 -4,-280 1970,-280 1970,4 -4,4"/>
<text text-anchor="start" x="962.01" y="-42.4" font-family="sans-serif" font-weight="bold" font-size="14.00">Legend</text>
<polygon fill="#ffffb3" stroke="transparent" points="749,-10 749,-30 769,-30 769,-10 749,-10"/>
<text text-anchor="start" x="772.63" y="-15.4" font-family="sans-serif" font-size="14.00"> &#160;Declarations</text>
<polygon fill="#8dd3c7" stroke="transparent" points="862,-10 862,-30 882,-30 882,-10 862,-10"/>
<text text-anchor="start" x="885.73" y="-15.4" font-family="sans-serif" font-size="14.00"> &#160;Module</text>
<polygon fill="#80b1d3" stroke="transparent" points="948,-10 948,-30 968,-30 968,-10 948,-10"/>
<text text-anchor="start" x="971.78" y="-15.4" font-family="sans-serif" font-size="14.00"> &#160;Bootstrap</text>
<polygon fill="#fdb462" stroke="transparent" points="1045,-10 1045,-30 1065,-30 1065,-10 1045,-10"/>
<text text-anchor="start" x="1068.67" y="-15.4" font-family="sans-serif" font-size="14.00"> &#160;Providers</text>
<polygon fill="#fb8072" stroke="transparent" points="1141,-10 1141,-30 1161,-30 1161,-10 1141,-10"/>
<text text-anchor="start" x="1164.73" y="-15.4" font-family="sans-serif" font-size="14.00"> &#160;Exports</text>
<g id="clust1" class="cluster">
<title>cluster_AppModule</title>
<polygon fill="none" stroke="black" stroke-dasharray="1,5" points="8,-70 8,-268 1958,-268 1958,-70 8,-70"/>
</g>
<g id="clust2" class="cluster">
<title>cluster_AppModule_declarations</title>
<polygon fill="none" stroke="black" points="1389,-78 1389,-130 1950,-130 1950,-78 1389,-78"/>
</g>
<g id="clust10" class="cluster">
<title>cluster_AppModule_providers</title>
<polygon fill="none" stroke="black" points="937,-78 937,-130 1381,-130 1381,-78 937,-78"/>
</g>
<g id="clust7" class="cluster">
<title>cluster_AppModule_imports</title>
<polygon fill="none" stroke="black" points="16,-78 16,-130 929,-130 929,-78 16,-78"/>
</g>
<g id="clust9" class="cluster">
<title>cluster_AppModule_bootstrap</title>
<polygon fill="none" stroke="black" points="877,-208 877,-260 1001,-260 1001,-208 877,-208"/>
</g>
<!-- AppComponent -->
<g id="node1" class="node">
<title>AppComponent</title>
<polygon fill="#ffffb3" stroke="black" points="1941.94,-122 1836.06,-122 1836.06,-86 1941.94,-86 1941.94,-122"/>
<text text-anchor="middle" x="1889" y="-99.8" font-family="Times,serif" font-size="14.00">AppComponent</text>
</g>
<!-- AppModule -->
<g id="node5" class="node">
<title>AppModule</title>
<polygon fill="#8dd3c7" stroke="black" points="980.66,-187 977.66,-191 956.66,-191 953.66,-187 897.34,-187 897.34,-151 980.66,-151 980.66,-187"/>
<text text-anchor="middle" x="939" y="-164.8" font-family="Times,serif" font-size="14.00">AppModule</text>
</g>
<!-- AppComponent&#45;&gt;AppModule -->
<g id="edge1" class="edge">
<title>AppComponent&#45;&gt;AppModule</title>
<path fill="none" stroke="black" d="M1889,-122.09C1889,-145.13 1889,-182 1889,-182 1889,-182 990.74,-182 990.74,-182"/>
<polygon fill="black" stroke="black" points="990.74,-178.5 980.74,-182 990.74,-185.5 990.74,-178.5"/>
</g>
<!-- HomeComponent -->
<g id="node2" class="node">
<title>HomeComponent</title>
<polygon fill="#ffffb3" stroke="black" points="1818.55,-122 1703.45,-122 1703.45,-86 1818.55,-86 1818.55,-122"/>
<text text-anchor="middle" x="1761" y="-99.8" font-family="Times,serif" font-size="14.00">HomeComponent</text>
</g>
<!-- HomeComponent&#45;&gt;AppModule -->
<g id="edge2" class="edge">
<title>HomeComponent&#45;&gt;AppModule</title>
<path fill="none" stroke="black" d="M1761,-122.04C1761,-143.66 1761,-177 1761,-177 1761,-177 990.89,-177 990.89,-177"/>
<polygon fill="black" stroke="black" points="990.89,-173.5 980.89,-177 990.89,-180.5 990.89,-173.5"/>
</g>
<!-- NavComponent -->
<g id="node3" class="node">
<title>NavComponent</title>
<polygon fill="#ffffb3" stroke="black" points="1685.15,-122 1580.85,-122 1580.85,-86 1685.15,-86 1685.15,-122"/>
<text text-anchor="middle" x="1633" y="-99.8" font-family="Times,serif" font-size="14.00">NavComponent</text>
</g>
<!-- NavComponent&#45;&gt;AppModule -->
<g id="edge3" class="edge">
<title>NavComponent&#45;&gt;AppModule</title>
<path fill="none" stroke="black" d="M1633,-122.22C1633,-142.37 1633,-172 1633,-172 1633,-172 990.85,-172 990.85,-172"/>
<polygon fill="black" stroke="black" points="990.85,-168.5 980.85,-172 990.85,-175.5 990.85,-168.5"/>
</g>
<!-- PageNotFoundComponent -->
<g id="node4" class="node">
<title>PageNotFoundComponent</title>
<polygon fill="#ffffb3" stroke="black" points="1562.82,-122 1397.18,-122 1397.18,-86 1562.82,-86 1562.82,-122"/>
<text text-anchor="middle" x="1480" y="-99.8" font-family="Times,serif" font-size="14.00">PageNotFoundComponent</text>
</g>
<!-- PageNotFoundComponent&#45;&gt;AppModule -->
<g id="edge4" class="edge">
<title>PageNotFoundComponent&#45;&gt;AppModule</title>
<path fill="none" stroke="black" d="M1480,-122.22C1480,-140.83 1480,-167 1480,-167 1480,-167 991,-167 991,-167"/>
<polygon fill="black" stroke="black" points="991,-163.5 981,-167 991,-170.5 991,-163.5"/>
</g>
<!-- AppComponent  -->
<g id="node13" class="node">
<title>AppComponent </title>
<polygon fill="#80b1d3" stroke="black" points="993.44,-252 884.56,-252 884.56,-216 993.44,-216 993.44,-252"/>
<text text-anchor="middle" x="939" y="-229.8" font-family="Times,serif" font-size="14.00">AppComponent </text>
</g>
<!-- AppModule&#45;&gt;AppComponent  -->
<g id="edge12" class="edge">
<title>AppModule&#45;&gt;AppComponent </title>
<path fill="none" stroke="black" stroke-dasharray="1,5" d="M939,-187.11C939,-187.11 939,-205.99 939,-205.99"/>
<polygon fill="black" stroke="black" points="935.5,-205.99 939,-215.99 942.5,-205.99 935.5,-205.99"/>
</g>
<!-- AdminModule -->
<g id="node6" class="node">
<title>AdminModule</title>
<polygon fill="#8dd3c7" stroke="black" points="921.44,-122 918.44,-126 897.44,-126 894.44,-122 822.56,-122 822.56,-86 921.44,-86 921.44,-122"/>
<text text-anchor="middle" x="872" y="-99.8" font-family="Times,serif" font-size="14.00">AdminModule</text>
</g>
<!-- AdminModule&#45;&gt;AppModule -->
<g id="edge5" class="edge">
<title>AdminModule&#45;&gt;AppModule</title>
<path fill="none" stroke="black" d="M909.2,-122.11C909.2,-122.11 909.2,-140.99 909.2,-140.99"/>
<polygon fill="black" stroke="black" points="905.7,-140.99 909.2,-150.99 912.7,-140.99 905.7,-140.99"/>
</g>
<!-- AppRoutingModule -->
<g id="node7" class="node">
<title>AppRoutingModule</title>
<polygon fill="#8dd3c7" stroke="black" points="804.27,-122 801.27,-126 780.27,-126 777.27,-122 675.73,-122 675.73,-86 804.27,-86 804.27,-122"/>
<text text-anchor="middle" x="740" y="-99.8" font-family="Times,serif" font-size="14.00">AppRoutingModule</text>
</g>
<!-- AppRoutingModule&#45;&gt;AppModule -->
<g id="edge6" class="edge">
<title>AppRoutingModule&#45;&gt;AppModule</title>
<path fill="none" stroke="black" d="M740,-122.24C740,-137.57 740,-157 740,-157 740,-157 887.28,-157 887.28,-157"/>
<polygon fill="black" stroke="black" points="887.28,-160.5 897.28,-157 887.28,-153.5 887.28,-160.5"/>
</g>
<!-- BookModule -->
<g id="node8" class="node">
<title>BookModule</title>
<polygon fill="#8dd3c7" stroke="black" points="657.89,-122 654.89,-126 633.89,-126 630.89,-122 568.11,-122 568.11,-86 657.89,-86 657.89,-122"/>
<text text-anchor="middle" x="613" y="-99.8" font-family="Times,serif" font-size="14.00">BookModule</text>
</g>
<!-- BookModule&#45;&gt;AppModule -->
<g id="edge7" class="edge">
<title>BookModule&#45;&gt;AppModule</title>
<path fill="none" stroke="black" d="M613,-122.03C613,-139.06 613,-162 613,-162 613,-162 887.05,-162 887.05,-162"/>
<polygon fill="black" stroke="black" points="887.05,-165.5 897.05,-162 887.05,-158.5 887.05,-165.5"/>
</g>
<!-- LibraryModule -->
<g id="node9" class="node">
<title>LibraryModule</title>
<polygon fill="#8dd3c7" stroke="black" points="549.53,-122 546.53,-126 525.53,-126 522.53,-122 448.47,-122 448.47,-86 549.53,-86 549.53,-122"/>
<text text-anchor="middle" x="499" y="-99.8" font-family="Times,serif" font-size="14.00">LibraryModule</text>
</g>
<!-- LibraryModule&#45;&gt;AppModule -->
<g id="edge8" class="edge">
<title>LibraryModule&#45;&gt;AppModule</title>
<path fill="none" stroke="black" d="M499,-122.22C499,-140.83 499,-167 499,-167 499,-167 887.21,-167 887.21,-167"/>
<polygon fill="black" stroke="black" points="887.21,-170.5 897.21,-167 887.21,-163.5 887.21,-170.5"/>
</g>
<!-- LoginAndSignupModule -->
<g id="node10" class="node">
<title>LoginAndSignupModule</title>
<polygon fill="#8dd3c7" stroke="black" points="430.27,-122 427.27,-126 406.27,-126 403.27,-122 273.73,-122 273.73,-86 430.27,-86 430.27,-122"/>
<text text-anchor="middle" x="352" y="-99.8" font-family="Times,serif" font-size="14.00">LoginAndSignupModule</text>
</g>
<!-- LoginAndSignupModule&#45;&gt;AppModule -->
<g id="edge9" class="edge">
<title>LoginAndSignupModule&#45;&gt;AppModule</title>
<path fill="none" stroke="black" d="M352,-122.22C352,-142.37 352,-172 352,-172 352,-172 887.25,-172 887.25,-172"/>
<polygon fill="black" stroke="black" points="887.26,-175.5 897.25,-172 887.25,-168.5 887.26,-175.5"/>
</g>
<!-- ModalsModule -->
<g id="node11" class="node">
<title>ModalsModule</title>
<polygon fill="#8dd3c7" stroke="black" points="255.55,-122 252.55,-126 231.55,-126 228.55,-122 154.45,-122 154.45,-86 255.55,-86 255.55,-122"/>
<text text-anchor="middle" x="205" y="-99.8" font-family="Times,serif" font-size="14.00">ModalsModule</text>
</g>
<!-- ModalsModule&#45;&gt;AppModule -->
<g id="edge10" class="edge">
<title>ModalsModule&#45;&gt;AppModule</title>
<path fill="none" stroke="black" d="M205,-122.04C205,-143.66 205,-177 205,-177 205,-177 887.17,-177 887.17,-177"/>
<polygon fill="black" stroke="black" points="887.17,-180.5 897.17,-177 887.17,-173.5 887.17,-180.5"/>
</g>
<!-- UploaderModule -->
<g id="node12" class="node">
<title>UploaderModule</title>
<polygon fill="#8dd3c7" stroke="black" points="135.64,-122 132.64,-126 111.64,-126 108.64,-122 24.36,-122 24.36,-86 135.64,-86 135.64,-122"/>
<text text-anchor="middle" x="80" y="-99.8" font-family="Times,serif" font-size="14.00">UploaderModule</text>
</g>
<!-- UploaderModule&#45;&gt;AppModule -->
<g id="edge11" class="edge">
<title>UploaderModule&#45;&gt;AppModule</title>
<path fill="none" stroke="black" d="M80,-122.09C80,-145.13 80,-182 80,-182 80,-182 887.28,-182 887.28,-182"/>
<polygon fill="black" stroke="black" points="887.28,-185.5 897.28,-182 887.28,-178.5 887.28,-185.5"/>
</g>
<!-- BooksService -->
<g id="node14" class="node">
<title>BooksService</title>
<ellipse fill="#fdb462" stroke="black" cx="1308" cy="-104" rx="64.85" ry="18"/>
<text text-anchor="middle" x="1308" y="-99.8" font-family="Times,serif" font-size="14.00">BooksService</text>
</g>
<!-- BooksService&#45;&gt;AppModule -->
<g id="edge13" class="edge">
<title>BooksService&#45;&gt;AppModule</title>
<path fill="none" stroke="black" d="M1308,-122.03C1308,-139.06 1308,-162 1308,-162 1308,-162 990.97,-162 990.97,-162"/>
<polygon fill="black" stroke="black" points="990.97,-158.5 980.97,-162 990.97,-165.5 990.97,-158.5"/>
</g>
<!-- LibraryService -->
<g id="node15" class="node">
<title>LibraryService</title>
<ellipse fill="#fdb462" stroke="black" cx="1156" cy="-104" rx="68.9" ry="18"/>
<text text-anchor="middle" x="1156" y="-99.8" font-family="Times,serif" font-size="14.00">LibraryService</text>
</g>
<!-- LibraryService&#45;&gt;AppModule -->
<g id="edge14" class="edge">
<title>LibraryService&#45;&gt;AppModule</title>
<path fill="none" stroke="black" d="M1156,-122.24C1156,-137.57 1156,-157 1156,-157 1156,-157 990.84,-157 990.84,-157"/>
<polygon fill="black" stroke="black" points="990.84,-153.5 980.84,-157 990.84,-160.5 990.84,-153.5"/>
</g>
<!-- UsersService -->
<g id="node16" class="node">
<title>UsersService</title>
<ellipse fill="#fdb462" stroke="black" cx="1007" cy="-104" rx="61.95" ry="18"/>
<text text-anchor="middle" x="1007" y="-99.8" font-family="Times,serif" font-size="14.00">UsersService</text>
</g>
<!-- UsersService&#45;&gt;AppModule -->
<g id="edge15" class="edge">
<title>UsersService&#45;&gt;AppModule</title>
<path fill="none" stroke="black" d="M962.93,-116.84C962.93,-116.84 962.93,-140.52 962.93,-140.52"/>
<polygon fill="black" stroke="black" points="959.43,-140.52 962.93,-150.52 966.43,-140.52 959.43,-140.52"/>
</g>
</g>
</svg>
